…
)
colnames(data) <- c("trial", "arm", "subject", "change", "cov1", "cov2")
data$trial <- paste0("trial", data$trial)
data$arm <- paste0("arm", data$arm)
hb_data(
  data = data,
  response = "change",
  study = "trial",
  study_reference = "trial1",
  group = "arm",
  group_reference = "arm1",
  patient = "subject",
  covariates = c("cov1", "cov2")
)
#> # A tibble: 400 × 9
#>    response study_label group_label patient_label study group patient
#>       <dbl> <chr>       <chr>               <int> <int> <int>   <int>
#>  1   1.42   trial2      arm1                  101     1     1     101
#>  2   1.79   trial2      arm1                  102     1     1     102
#>  3   0.348  trial2      arm1                  103     1     1     103
#>  4  -0.631  trial2      arm1                  104     1     1     104
#>  5   0.0563 trial2      arm1                  105     1     1     105
#>  6  -0.356  trial2      arm1                  106     1     1     106
#>  7   1.08   trial2      arm1                  107     1     1     107
#>  8  -0.984  trial2      arm1                  108     1     1     108
#>  9  -2.87   trial2      arm1                  109     1     1     109
#> 10   0.707  trial2      arm1                  110     1     1     110
#> # ℹ 390 more rows
#> # ℹ 2 more variables: covariate_cov1 <dbl>, covariate_cov2 <dbl>
```
