Standardize data — hb_data • historicalborrow
…
)
colnames(data) <- c("trial", "arm", "subject", "change", "cov1", "cov2")
data$trial <- paste0("trial", data$trial)
data$arm <- paste0("arm", data$arm)
hb_data(
  data = data,
  response = "change",
  study = "trial",
  study_reference = "trial1",
  group = "arm",
  group_reference = "arm1",
  patient = "subject",
  covariates = c("cov1", "cov2")
)
#> # A tibble: 400 × 9
#>    response study_label group_label patient_label study group patient
#>       <dbl> <chr>       <chr>               <int> <int> <int>   <int>
#>  1    1.91  trial2      arm1                  101     1     1     101
#>  2    3.27  trial2      arm1                  102     1     1     102
#>  3    3.04  trial2      arm1                  103     1     1     103
#>  4    2.01  trial2      arm1                  104     1     1     104
#>  5    1.61  trial2      arm1                  105     1     1     105
#>  6    0.912 trial2      arm1                  106     1     1     106
#>  7    0.885 trial2      arm1                  107     1     1     107
#>  8    1.33  trial2      arm1                  108     1     1     108
#>  9    1.04  trial2      arm1                  109     1     1     109
#> 10   -1.81  trial2      arm1                  110     1     1     110
#> # ℹ 390 more rows
#> # ℹ 2 more variables: covariate_cov1 <dbl>, covariate_cov2 <dbl>
…
