…
  response = "response",
  study = "study",
  study_reference = "study5",
  group = "group",
  group_reference = 1,
  patient = "patient",
  m_omega = hyperparameters$m_omega, # use hyperparams from historical data
  s_omega = hyperparameters$s_omega, # use hyperparams from historical data
  p_omega = rep(1 / nrow(hyperparameters), nrow(hyperparameters)),
  n_chains = 1,
  n_adapt = 100,
  n_warmup = 50,
  n_iterations = 50
)
#> # A tibble: 50 × 19
#>    alpha `beta[1]` `beta[2]` `delta[1]` `delta[2]` `omega[1]` `omega[2]`
#>    <dbl>     <dbl>     <dbl>      <dbl>      <dbl>      <dbl>      <dbl>
#>  1 -1.54     0.603      1.14      0.599     -0.609    -0.0702    0.0582 
#>  2 -1.46     0.553      1.06      0.587     -0.611     0.243     0.0244 
#>  3 -1.57     0.638      1.09      0.539     -0.580     0.357     0.0671 
#>  4 -1.65     0.560      1.22      0.621     -0.623     0.0955    0.119  
#>  5 -1.51     0.687      1.03      0.622     -0.576     0.411     0.0461 
#>  6 -1.66     0.640      1.11      0.654     -0.585     0.241     0.0489 
#>  7 -1.58     0.572      1.16      0.606     -0.617     0.368     0.0281 
#>  8 -1.68     0.566      1.20      0.473     -0.631     0.456     0.00625
#>  9 -1.61     0.643      1.09      0.346     -0.715     0.295     0.0467 
#> 10 -1.67     0.613      1.05      0.607     -0.658     0.488    -0.0488 
#> # ℹ 40 more rows
#> # ℹ 12 more variables: `omega[3]` <dbl>, `omega[4]` <dbl>, `omega[5]` <dbl>,
#> #   `post_p[1]` <dbl>, `post_p[2]` <dbl>, `post_p[3]` <dbl>, `post_p[4]` <dbl>,
#> #   `post_p[5]` <dbl>, sigma <dbl>, .chain <int>, .iteration <int>, .draw <int>
```
