Mixture model MCMC — hb_mcmc_mixture • historicalborrow
…
  response = "response",
  study = "study",
  study_reference = "study5",
  group = "group",
  group_reference = 1,
  patient = "patient",
  m_omega = hyperparameters$m_omega, # use hyperparams from historical data
  s_omega = hyperparameters$s_omega, # use hyperparams from historical data
  p_omega = rep(1 / nrow(hyperparameters), nrow(hyperparameters)),
  n_chains = 1,
  n_adapt = 100,
  n_warmup = 50,
  n_iterations = 50
)
#> # A tibble: 50 × 19
#>    alpha beta[…¹ beta[…² delta…³ delta…⁴ omega…⁵ omega…⁶ omega…⁷ omega…⁸ omega…⁹
#>    <dbl>   <dbl>   <dbl>   <dbl>   <dbl>   <dbl>   <dbl>   <dbl>   <dbl>   <dbl>
#>  1 0.434  -0.590   -1.46   -1.99  -0.533  -1.16   0.0409   1.16     1.68   0.434
#>  2 0.232  -0.507   -1.51   -1.91  -0.577  -0.830 -0.148    1.02     1.72   0.232
#>  3 0.326  -0.559   -1.48   -1.99  -0.696  -1.03  -0.150    0.936    1.86   0.326
#>  4 0.348  -0.492   -1.47   -1.99  -0.704  -1.19  -0.262    1.09     1.83   0.348
#>  5 0.298  -0.530   -1.46   -2.11  -0.574  -0.681 -0.268    1.01     1.76   0.298
#>  6 0.349  -0.536   -1.42   -2.07  -0.679  -1.24  -0.315    1.18     1.92   0.349
#>  7 0.323  -0.508   -1.40   -2.17  -0.592  -0.877 -0.284    1.16     1.78   0.323
#>  8 0.306  -0.571   -1.42   -2.03  -0.721  -0.921 -0.125    1.12     1.92   0.306
#>  9 0.359  -0.543   -1.43   -2.00  -0.618  -1.07  -0.555    1.01     1.80   0.359
#> 10 0.369  -0.574   -1.43   -2.06  -0.789  -1.10  -0.110    1.11     1.79   0.369
#> # … with 40 more rows, 9 more variables: `post_p[1]` <dbl>, `post_p[2]` <dbl>,
#> #   `post_p[3]` <dbl>, `post_p[4]` <dbl>, `post_p[5]` <dbl>, sigma <dbl>,
#> #   .chain <int>, .iteration <int>, .draw <int>, and abbreviated variable names
#> #   ¹​`beta[1]`, ²​`beta[2]`, ³​`delta[1]`, ⁴​`delta[2]`, ⁵​`omega[1]`, ⁶​`omega[2]`,
#> #   ⁷​`omega[3]`, ⁸​`omega[4]`, ⁹​`omega[5]`
…
