…
  response = "response",
  study = "study",
  study_reference = "study5",
  group = "group",
  group_reference = 1,
  patient = "patient",
  m_omega = hyperparameters$m_omega, # use hyperparams from historical data
  s_omega = hyperparameters$s_omega, # use hyperparams from historical data
  p_omega = rep(1 / nrow(hyperparameters), nrow(hyperparameters)),
  n_chains = 1,
  n_adapt = 100,
  n_warmup = 50,
  n_iterations = 50
)
#> # A tibble: 50 × 19
#>     alpha `beta[1]` `beta[2]` `delta[1]` `delta[2]` `omega[1]` `omega[2]`
#>     <dbl>     <dbl>     <dbl>      <dbl>      <dbl>      <dbl>      <dbl>
#>  1 -0.295    0.0309     0.295     -0.361     -0.799   -0.00489     -0.295
#>  2 -0.310    0.0289     0.289     -0.375     -0.799    0.0474      -0.310
#>  3 -0.288    0.0335     0.295     -0.396     -0.794    0.167       -0.288
#>  4 -0.288    0.0424     0.291     -0.401     -0.778    0.102       -0.288
#>  5 -0.346    0.0240     0.283     -0.389     -0.801   -0.0243      -0.346
#>  6 -0.300    0.0355     0.288     -0.346     -0.789    0.0631      -0.300
#>  7 -0.303    0.0413     0.277     -0.374     -0.813    0.109       -0.303
#>  8 -0.296    0.0313     0.299     -0.376     -0.781    0.0683      -0.296
#>  9 -0.299    0.0405     0.299     -0.390     -0.793    0.123       -0.299
#> 10 -0.287    0.0377     0.296     -0.357     -0.787    0.119       -0.287
#> # ℹ 40 more rows
#> # ℹ 12 more variables: `omega[3]` <dbl>, `omega[4]` <dbl>, `omega[5]` <dbl>,
#> #   `post_p[1]` <dbl>, `post_p[2]` <dbl>, `post_p[3]` <dbl>, `post_p[4]` <dbl>,
#> #   `post_p[5]` <dbl>, sigma <dbl>, .chain <int>, .iteration <int>, .draw <int>
```
