Mixture model MCMC hyperparameters — hb_mcmc_mixture_hyperparameters • historicalborrow
…
  response = "response",
  study = "study",
  study_reference = "study5",
  group = "group",
  group_reference = 1,
  patient = "patient",
  m_omega = hyperparameters$m_omega, # use hyperparams from historical data
  s_omega = hyperparameters$s_omega, # use hyperparams from historical data
  p_omega = rep(1 / nrow(hyperparameters), nrow(hyperparameters)),
  n_chains = 1,
  n_adapt = 100,
  n_warmup = 50,
  n_iterations = 50
)
#> # A tibble: 50 × 19
#>    alpha `beta[1]` `beta[2]` `delta[1]` `delta[2]` `omega[1]` `omega[2]`
#>    <dbl>     <dbl>     <dbl>      <dbl>      <dbl>      <dbl>      <dbl>
#>  1 -1.09    0.0248     0.837      0.274   0.0111        -1.09       1.06
#>  2 -1.08    0.0336     0.830      0.282   0.0145        -1.08       1.12
#>  3 -1.06    0.0179     0.836      0.288   0.0257        -1.06       1.31
#>  4 -1.07    0.0319     0.828      0.288   0.0165        -1.07       1.37
#>  5 -1.06    0.0228     0.831      0.257   0.0155        -1.06       1.30
#>  6 -1.08    0.0339     0.824      0.268   0.00188       -1.08       1.31
#>  7 -1.06    0.0345     0.834      0.283  -0.000123      -1.06       1.17
#>  8 -1.06    0.0344     0.832      0.291   0.00559       -1.06       1.55
#>  9 -1.10    0.0379     0.837      0.284   0.0101        -1.10       1.13
#> 10 -1.07    0.0271     0.837      0.271   0.00946       -1.07       1.27
#> # ℹ 40 more rows
#> # ℹ 12 more variables: `omega[3]` <dbl>, `omega[4]` <dbl>, `omega[5]` <dbl>,
#> #   `post_p[1]` <dbl>, `post_p[2]` <dbl>, `post_p[3]` <dbl>, `post_p[4]` <dbl>,
#> #   `post_p[5]` <dbl>, sigma <dbl>, .chain <int>, .iteration <int>, .draw <int>
…
