Hierarchical model MCMC — hb_mcmc_hierarchical • historicalborrow
…
    Examples

data <- hb_sim_hierarchical(n_continuous = 2)$data
hb_mcmc_hierarchical(
  data,
  n_chains = 1,
  n_adapt = 100,
  n_warmup = 50,
  n_iterations = 50
)
#> # A tibble: 50 × 28
#>    `alpha[1]` `alpha[2]` alpha…¹ alpha…² alpha…³ beta[…⁴ beta[…⁵ beta[…⁶ beta[…⁷
#>         <dbl>      <dbl>   <dbl>   <dbl>   <dbl>   <dbl>   <dbl>   <dbl>   <dbl>
#>  1      -1.67      -1.72   -1.68   -1.71   -1.70    1.33 -0.255   -0.273   0.386
#>  2      -1.71      -1.73   -1.68   -1.74   -1.70    1.52 -0.306   -0.143   0.349
#>  3      -1.67      -1.70   -1.71   -1.72   -1.70    1.51 -0.0316  -0.163   0.325
#>  4      -1.73      -1.74   -1.70   -1.73   -1.69    1.47 -0.0929  -0.201   0.279
#>  5      -1.71      -1.69   -1.68   -1.72   -1.73    1.58 -0.337   -0.318   0.268
#>  6      -1.70      -1.74   -1.74   -1.70   -1.74    1.58 -0.107   -0.183   0.343
#>  7      -1.68      -1.72   -1.64   -1.70   -1.69    1.43 -0.260   -0.227   0.334
#>  8      -1.74      -1.78   -1.69   -1.72   -1.65    1.50 -0.323   -0.179   0.364
#>  9      -1.69      -1.74   -1.64   -1.70   -1.68    1.44 -0.369   -0.214   0.397
#> 10      -1.60      -1.77   -1.67   -1.71   -1.69    1.39 -0.216   -0.168   0.269
#> # … with 40 more rows, 19 more variables: `beta[5]` <dbl>, `beta[6]` <dbl>,
#> #   `beta[7]` <dbl>, `beta[8]` <dbl>, `beta[9]` <dbl>, `beta[10]` <dbl>,
#> #   `delta[1]` <dbl>, `delta[2]` <dbl>, mu <dbl>, precision_ratio <dbl>,
#> #   `sigma[1]` <dbl>, `sigma[2]` <dbl>, `sigma[3]` <dbl>, `sigma[4]` <dbl>,
#> #   `sigma[5]` <dbl>, tau <dbl>, .chain <int>, .iteration <int>, .draw <int>,
#> #   and abbreviated variable names ¹​`alpha[3]`, ²​`alpha[4]`, ³​`alpha[5]`,
#> #   ⁴​`beta[1]`, ⁵​`beta[2]`, ⁶​`beta[3]`, ⁷​`beta[4]`
…
