…
- `matrices`: A named list of model matrices. See the model
  specification vignette for details.

## See also

Other simulate:
[`hb_sim_hierarchical()`](https://wlandau.github.io/historicalborrow/reference/hb_sim_hierarchical.md),
[`hb_sim_independent()`](https://wlandau.github.io/historicalborrow/reference/hb_sim_independent.md),
[`hb_sim_pool()`](https://wlandau.github.io/historicalborrow/reference/hb_sim_pool.md)

## Examples

``` r
hb_sim_mixture()$data
#> # A tibble: 300 × 4
#>    study group patient response
#>    <int> <int>   <int>    <dbl>
#>  1     1     1       1    0.890
#>  2     1     1       2    0.864
#>  3     1     1       3    1.79 
#>  4     1     1       4    1.000
#>  5     1     1       5    1.20 
#>  6     1     1       6    0.973
#>  7     1     1       7    1.16 
#>  8     1     1       8    1.34 
#>  9     1     1       9    1.14 
#> 10     1     1      10    0.871
#> # ℹ 290 more rows
```
