…
- `matrices`: A named list of model matrices. See the model
  specification vignette for details.

## See also

Other simulate:
[`hb_sim_hierarchical()`](https://wlandau.github.io/historicalborrow/reference/hb_sim_hierarchical.md),
[`hb_sim_mixture()`](https://wlandau.github.io/historicalborrow/reference/hb_sim_mixture.md),
[`hb_sim_pool()`](https://wlandau.github.io/historicalborrow/reference/hb_sim_pool.md)

## Examples

``` r
hb_sim_independent()$data
#> # A tibble: 700 × 4
#>    study group patient response
#>    <int> <int>   <int>    <dbl>
#>  1     1     1       1  -0.0200
#>  2     1     1       2   0.451 
#>  3     1     1       3   1.17  
#>  4     1     1       4   0.251 
#>  5     1     1       5  -0.414 
#>  6     1     1       6   0.444 
#>  7     1     1       7   0.132 
#>  8     1     1       8  -0.126 
#>  9     1     1       9   0.221 
#> 10     1     1      10   0.574 
#> # ℹ 690 more rows
```
