…
- `matrices`: A named list of model matrices. See the model
  specification vignette for details.

## See also

Other simulate:
[`hb_sim_hierarchical()`](https://wlandau.github.io/historicalborrow/reference/hb_sim_hierarchical.md),
[`hb_sim_independent()`](https://wlandau.github.io/historicalborrow/reference/hb_sim_independent.md),
[`hb_sim_mixture()`](https://wlandau.github.io/historicalborrow/reference/hb_sim_mixture.md)

## Examples

``` r
hb_sim_pool(n_continuous = 1)$data
#> # A tibble: 700 × 9
#>    study group patient covariate_study1_continuous1 covariate_study2_continuous1
#>    <int> <int>   <int>                        <dbl>                        <dbl>
#>  1     1     1       1                      -0.836                             0
#>  2     1     1       2                      -0.669                             0
#>  3     1     1       3                      -0.990                             0
#>  4     1     1       4                       1.57                              0
#>  5     1     1       5                       2.93                              0
#>  6     1     1       6                       0.284                             0
#>  7     1     1       7                       0.572                             0
#>  8     1     1       8                       0.0726                            0
#>  9     1     1       9                      -1.11                              0
#> 10     1     1      10                       1.11                              0
#> # ℹ 690 more rows
#> # ℹ 4 more variables: covariate_study3_continuous1 <dbl>,
#> #   covariate_study4_continuous1 <dbl>, covariate_study5_continuous1 <dbl>,
#> #   response <dbl>
```
