…
- `matrices`: A named list of model matrices. See the model
  specification vignette for details.

## See also

Other simulate:
[`hb_sim_independent()`](https://wlandau.github.io/historicalborrow/reference/hb_sim_independent.md),
[`hb_sim_mixture()`](https://wlandau.github.io/historicalborrow/reference/hb_sim_mixture.md),
[`hb_sim_pool()`](https://wlandau.github.io/historicalborrow/reference/hb_sim_pool.md)

## Examples

``` r
hb_sim_hierarchical()$data
#> # A tibble: 700 × 4
#>    study group patient response
#>    <int> <int>   <int>    <dbl>
#>  1     1     1       1     1.29
#>  2     1     1       2     1.49
#>  3     1     1       3     1.36
#>  4     1     1       4     1.56
#>  5     1     1       5     1.75
#>  6     1     1       6     1.65
#>  7     1     1       7     1.73
#>  8     1     1       8     1.44
#>  9     1     1       9     1.45
#> 10     1     1      10     1.44
#> # ℹ 690 more rows
```
