Usage • historicalborrow
…
  rename(
    outcome = response,
    trial = study,
    arm = group,
    subject = patient,
    factor1 = covariate_study1_continuous1,
    factor2 = covariate_study2_continuous1
  ) %>%
  mutate(
    trial = paste0("trial", trial),
    arm = paste0("arm", arm),
    subject = paste0("subject", subject)
  )
data
#> # A tibble: 400 × 7
#>    trial  arm   subject    factor1 factor2 covariate_study3_continuous1 outcome
#>    <chr>  <chr> <chr>        <dbl>   <dbl>                        <dbl>   <dbl>
#>  1 trial1 arm1  subject1   1.27          0                            0  3.31  
#>  2 trial1 arm1  subject2   0.415         0                            0  3.23  
#>  3 trial1 arm1  subject3  -1.54          0                            0 -3.08  
#>  4 trial1 arm1  subject4  -0.929         0                            0 -0.623 
#>  5 trial1 arm1  subject5  -0.295         0                            0  2.33  
#>  6 trial1 arm1  subject6  -0.00577       0                            0  1.12  
#>  7 trial1 arm1  subject7   2.40          0                            0  5.88  
#>  8 trial1 arm1  subject8   0.764         0                            0  2.69  
#>  9 trial1 arm1  subject9  -0.799         0                            0 -0.0117
#> 10 trial1 arm1  subject10 -1.15          0                            0  0.261 
#> # ℹ 390 more rows
…
library(dplyr)
standardized_data <- hb_data(
  data = data,
  response = "outcome",
  study = "trial",
  study_reference = "trial3",
  group = "arm",
  group_reference = "arm1",
  patient = "subject",
  covariates = c("factor1", "factor2")
)
standardized_data
#> # A tibble: 400 × 9
#>    response study_label group_label patient_label study group patient
#>       <dbl> <chr>       <chr>       <chr>         <int> <int>   <int>
#>  1    3.31  trial1      arm1        subject1          1     1       1
#>  2    0.261 trial1      arm1        subject10         1     1       2
#>  3    1.81  trial1      arm1        subject100        1     1       3
#>  4   -1.21  trial1      arm1        subject11         1     1      13
#>  5    0.236 trial1      arm1        subject12         1     1      24
#>  6    1.02  trial1      arm1        subject13         1     1      35
#>  7    2.72  trial1      arm1        subject14         1     1      46
#>  8    0.485 trial1      arm1        subject15         1     1      57
#>  9    1.83  trial1      arm1        subject16         1     1      68
#> 10    0.357 trial1      arm1        subject17         1     1      79
#> # ℹ 390 more rows
#> # ℹ 2 more variables: covariate_factor1 <dbl>, covariate_factor2 <dbl>
…
mcmc_pool
#> # A tibble: 16,000 × 10
#>    alpha `beta[1]` `beta[2]`  delta `sigma[1]` `sigma[2]` `sigma[3]` .chain
#>    <dbl>     <dbl>     <dbl>  <dbl>      <dbl>      <dbl>      <dbl>  <int>
#>  1 0.951      1.31  -0.174   0.313        1.07      1.02        1.66      1
#>  2 0.822      1.41  -0.0920  0.0491       1.09      0.895       1.72      1
#>  3 0.908      1.33  -0.216   0.345        1.05      0.934       1.72      1
#>  4 0.956      1.43  -0.118   0.229        1.00      0.944       1.72      1
#>  5 0.977      1.20  -0.170   0.572        1.06      0.996       1.70      1
#>  6 0.983      1.42  -0.0678  0.230        1.06      1.06        1.71      1
#>  7 1.02       1.38   0.0449  0.141        1.14      1.03        1.94      1
#>  8 0.909      1.34   0.00974 0.833        1.11      1.06        1.78      1
#>  9 0.817      1.30  -0.0706  0.275        1.40      0.967       1.78      1
#> 10 1.03       1.42  -0.288   0.162        1.33      0.927       1.75      1
#> # ℹ 15,990 more rows
#> # ℹ 2 more variables: .iteration <int>, .draw <int>
…
